<?xml version="1.0" encoding="UTF-8" standalone="no"?>
<svg
   xmlns:dc="http://purl.org/dc/elements/1.1/"
   xmlns:cc="http://creativecommons.org/ns#"
   xmlns:rdf="http://www.w3.org/1999/02/22-rdf-syntax-ns#"
   xmlns:svg="http://www.w3.org/2000/svg"
   xmlns="http://www.w3.org/2000/svg"
   xmlns:sodipodi="http://sodipodi.sourceforge.net/DTD/sodipodi-0.dtd"
   xmlns:inkscape="http://www.inkscape.org/namespaces/inkscape"
   id="svg8"
   version="1.1"
   viewBox="0 0 79.374998 15.875"
   height="60"
   width="300"
   sodipodi:docname="buttons.svg"
   inkscape:version="0.92.3 (2405546, 2018-03-11)">
  <sodipodi:namedview
     pagecolor="#ffffff"
     bordercolor="#666666"
     borderopacity="1"
     objecttolerance="10"
     gridtolerance="10"
     guidetolerance="10"
     inkscape:pageopacity="0"
     inkscape:pageshadow="2"
     inkscape:window-width="1920"
     inkscape:window-height="1031"
     id="namedview17"
     showgrid="true"
     inkscape:zoom="7.1087799"
     inkscape:cx="100.90055"
     inkscape:cy="32.701374"
     inkscape:window-x="0"
     inkscape:window-y="25"
     inkscape:window-maximized="1"
     inkscape:current-layer="svg8">
    <inkscape:grid
       type="xygrid"
       id="grid3722" />
  </sodipodi:namedview>
  <defs
     id="defs2" />
  <metadata
     id="metadata5">
    <rdf:RDF>
      <cc:Work
         rdf:about="">
        <dc:format>image/svg+xml</dc:format>
        <dc:type
           rdf:resource="http://purl.org/dc/dcmitype/StillImage" />
        <dc:title />
      </cc:Work>
    </rdf:RDF>
  </metadata>
  <path
     inkscape:connector-curvature="0"
     style="opacity:1;fill:#000000;fill-opacity:1;stroke:none;stroke-width:0.77459186;stroke-miterlimit:4;stroke-dasharray:2.32377559, 2.32377558999999989;stroke-dashoffset:0;stroke-opacity:1"
     d="m 41.539583,2.1166667 v 0.5291666 h 4.233333 V 2.1166667 Z m 0,1.5874999 v 0.5291667 h 4.233333 V 3.7041666 Z m 0,1.5875001 v 0.5291666 h 4.233333 V 5.2916667 Z"
     id="rect924"
     sodipodi:nodetypes="ccccccccccccccc" />
  <path
     style="fill:#222222;fill-opacity:1;stroke:none;stroke-width:0.99999994px;stroke-linecap:butt;stroke-linejoin:miter;stroke-opacity:1"
     d="M 49 7 L 39 22 L 41 23 L 51 8 L 49 7 z M 40 9 L 34 15 L 38 19 L 40 17 L 38 15 L 42 11 L 40 9 z M 52 11 L 50 13 L 52 15 L 48 19 L 50 21 L 56 15 L 52 11 z "
     transform="scale(0.26458333)"
     id="path859" />
  <path
     inkscape:connector-curvature="0"
     id="path930"
     d="m 51.858333,1.85208 h -0.529167 l -3e-6,1.87088 -1.87089,2e-5 0.01881,0.51035 h 1.852086 l -3e-6,1.85209 h 0.529167 l 3e-6,-1.85208 1.85208,-1e-5 V 3.70417 h -1.85208 z"
     style="fill:#000000;fill-opacity:1;stroke:none;stroke-width:0.26458332px;stroke-linecap:butt;stroke-linejoin:miter;stroke-opacity:1" />
  <rect
     style="opacity:1;fill:#000000;fill-opacity:1;stroke:none;stroke-width:1;stroke-miterlimit:4;stroke-dasharray:2.99999999, 2.99999999;stroke-dashoffset:0;stroke-opacity:1"
     id="rect844"
     width="71.4375"
     height="1.3229166"
     x="0"
     y="-2.6458235" />
  <path
     inkscape:connector-curvature="0"
     style="fill:#222222;fill-opacity:1;stroke:none;stroke-width:0.26458332px;stroke-linecap:butt;stroke-linejoin:miter;stroke-opacity:1"
     d="M 19.579167,1.8520833 V 4.7624999 L 18.25625,3.4395833 17.727084,3.96875 19.84375,6.0854166 21.960417,3.96875 21.43125,3.4395833 20.108334,4.7624999 V 1.8520833 Z"
     id="path855" />
  <path
     inkscape:connector-curvature="0"
     id="path860"
     d="M 59.266666,6.08542 V 3.175 L 57.943749,4.49792 57.414583,3.96875 59.53125,1.85208 61.647916,3.96875 61.118749,4.49792 59.795833,3.175 v 2.91042 z"
     style="fill:#000000;fill-opacity:1;stroke:none;stroke-width:0.26458332px;stroke-linecap:butt;stroke-linejoin:miter;stroke-opacity:1" />
  <path
     inkscape:connector-curvature="0"
     style="opacity:1;fill:#000000;fill-opacity:1;stroke:none;stroke-width:0.04000001;stroke-linecap:round;stroke-linejoin:round;stroke-miterlimit:4;stroke-dasharray:none;stroke-dashoffset:0;stroke-opacity:1;paint-order:fill markers stroke"
     d="m 66.410416,1.8520833 v 1.0583333 h -1.058333 v 0.5291667 h 1.058333 v 1.0583333 h -1.058333 v 0.5291667 h 1.058333 v 1.0583333 h 0.529167 V 5.0270833 h 1.058333 v 1.0583333 h 0.529167 V 5.0270833 h 1.058333 V 4.4979166 H 68.527083 V 3.4395833 h 1.058333 V 2.9104166 H 68.527083 V 1.8520833 H 67.997916 V 2.9104166 H 66.939583 V 1.8520833 Z m 0.529167,1.5875 h 1.058333 v 1.0583333 h -1.058333 z"
     id="rect890" />
  <path
     inkscape:connector-curvature="0"
     style="opacity:1;fill:#222222;fill-opacity:1;stroke:none;stroke-width:0.04;stroke-linecap:round;stroke-linejoin:round;stroke-miterlimit:4;stroke-dasharray:none;stroke-dashoffset:0;stroke-opacity:1;paint-order:fill markers stroke"
     d="m 25.664584,1.8520833 v 3.175 h 3.174999 v -3.175 z M 26.19375,2.38125 h 2.116667 V 4.4979166 H 26.19375 Z m 3.175,0.5291666 v 2.6458333 h -2.645833 v 0.5291667 h 3.175 v -3.175 z"
     id="rect823" />
  <path
     inkscape:connector-curvature="0"
     style="opacity:1;fill:#222222;fill-opacity:1;stroke:none;stroke-width:0.03999999;stroke-linecap:round;stroke-linejoin:round;stroke-miterlimit:4;stroke-dasharray:none;stroke-dashoffset:0;stroke-opacity:1;paint-order:fill markers stroke"
     d="m 35.454167,1.5875 c -0.146572,0 -0.264584,0.1180119 -0.264584,0.2645833 v 0.2645833 c 0,0.02639 0.0079,0.050399 0.01498,0.074414 A 1.8520823,1.8520823 0 0 0 34.82474,2.3471434 C 34.81289,2.3254894 34.80177,2.3035134 34.7834,2.2851314 L 34.596327,2.0980631 c -0.10364,-0.1036416 -0.270494,-0.1036416 -0.374137,0 l -0.374126,0.3741374 c -0.103643,0.1036416 -0.103643,0.270496 0,0.3741372 l 0.187068,0.1870689 c 0.01884,0.018841 0.0413,0.030384 0.06356,0.042375 A 1.8520823,1.8520823 0 0 0 33.940564,3.45457 c -0.02388,-0.00704 -0.04768,-0.014986 -0.0739,-0.014986 H 33.60208 c -0.146571,0 -0.264583,0.1180118 -0.264583,0.2645833 V 4.233334 c 0,0.1465715 0.118012,0.2645833 0.264583,0.2645833 h 0.264584 c 0.02638,0 0.0504,-0.00786 0.07441,-0.014986 a 1.8520823,1.8520823 0 0 0 0.156062,0.3798218 c -0.02164,0.011861 -0.04363,0.022961 -0.06201,0.041341 l -0.187068,0.1870688 c -0.103643,0.1036416 -0.103643,0.2704955 0,0.3741373 l 0.374143,0.3741367 c 0.103642,0.1036418 0.270496,0.1036418 0.374136,0 l 0.187069,-0.1870686 c 0.01884,-0.018841 0.03038,-0.041302 0.04237,-0.063562 a 1.8520823,1.8520823 0 0 0 0.378788,0.1581298 c -0.007,0.023874 -0.01499,0.047683 -0.01499,0.073897 v 0.2645833 c 0,0.1465715 0.118012,0.2645833 0.264584,0.2645833 h 0.529166 c 0.146572,0 0.264584,-0.1180118 0.264584,-0.2645833 V 5.8208333 c 0,-0.02639 -0.0079,-0.050399 -0.01498,-0.074414 a 1.8520823,1.8520823 0 0 0 0.379823,-0.1560629 c 0.01185,0.021654 0.02297,0.043631 0.04134,0.062012 l 0.187068,0.1870686 c 0.10364,0.1036418 0.270495,0.1036418 0.374137,0 l 0.374137,-0.3741372 c 0.103642,-0.1036418 0.103642,-0.2704957 0,-0.3741372 L 37.402378,4.9040933 c -0.01884,-0.018841 -0.0413,-0.030384 -0.06356,-0.042375 a 1.8520823,1.8520823 0 0 0 0.158128,-0.3787884 c 0.02387,0.00704 0.04767,0.014986 0.07389,0.014986 h 0.264584 c 0.146571,0 0.264583,-0.1180118 0.264583,-0.2645833 v -0.529166 c 0,-0.1465715 -0.118012,-0.2645833 -0.264583,-0.2645833 h -0.264584 c -0.02638,0 -0.0504,0.00786 -0.07441,0.014986 A 1.8520823,1.8520823 0 0 0 37.340357,3.0747475 c 0.02164,-0.011861 0.04363,-0.022961 0.06201,-0.041341 l 0.187068,-0.1870688 c 0.103643,-0.1036413 0.103643,-0.2704956 0,-0.3741373 L 37.2153,2.0980629 c -0.103643,-0.1036417 -0.270497,-0.1036417 -0.374137,0 l -0.187069,0.1870687 c -0.01884,0.018841 -0.03038,0.041302 -0.04238,0.063562 A 1.8520823,1.8520823 0 0 0 36.232931,2.1905639 c 0.007,-0.023874 0.01499,-0.047683 0.01499,-0.073897 V 1.8520833 C 36.247917,1.7055119 36.129905,1.5875 35.983333,1.5875 Z M 35.71875,2.6458333 A 1.3229061,1.3229061 0 0 1 37.041667,3.96875 1.3229061,1.3229061 0 0 1 35.71875,5.2916666 1.3229061,1.3229061 0 0 1 34.395833,3.96875 1.3229061,1.3229061 0 0 1 35.71875,2.6458333 Z"
     id="path826" />
  <rect
     id="rect3735"
     width="7.9375"
     height="0.26458332"
     x="0"
     y="-0.26458332"
     style="stroke-width:0.26458332" />
  <rect
     style="stroke-width:0.26458332"
     y="-0.52916664"
     x="7.9375"
     height="0.26458332"
     width="7.9375"
     id="rect3746" />
  <rect
     style="stroke-width:0.26458332"
     y="-0.26458332"
     x="15.875"
     height="0.26458332"
     width="7.9375"
     id="rect3758" />
  <rect
     id="rect3760"
     width="7.9375"
     height="0.26458332"
     x="23.8125"
     y="-0.52916664"
     style="stroke-width:0.26458332" />
  <rect
     id="rect3772"
     width="7.9375"
     height="0.26458332"
     x="31.75"
     y="-0.26458332"
     style="stroke-width:0.26458332" />
  <rect
     style="stroke-width:0.26458332"
     y="-0.52916664"
     x="39.6875"
     height="0.26458332"
     width="7.9375"
     id="rect3774" />
  <rect
     style="stroke-width:0.26458332"
     y="-0.26458332"
     x="47.625"
     height="0.26458332"
     width="7.9375"
     id="rect3786" />
  <rect
     id="rect3788"
     width="7.9375"
     height="0.26458332"
     x="55.5625"
     y="-0.52916664"
     style="stroke-width:0.26458332" />
  <rect
     id="rect3800"
     width="7.9375"
     height="0.26458332"
     x="63.5"
     y="-0.26458332"
     style="stroke-width:0.26458332" />
  <rect
     style="stroke-width:0.26458332"
     y="-0.52916664"
     x="71.4375"
     height="0.26458332"
     width="7.9375"
     id="rect3802" />
  <path
     id="path39"
     d="m 35.454167,9.5591065 c -0.146572,0 -0.264584,0.1180119 -0.264584,0.2645833 v 0.2645832 c 0,0.02639 0.0079,0.0504 0.01498,0.07441 A 1.8520823,1.8520823 0 0 0 34.82474,10.31875 c -0.01185,-0.02165 -0.02297,-0.04363 -0.04134,-0.06201 L 34.596327,10.06967 c -0.10364,-0.103642 -0.270494,-0.103642 -0.374137,0 l -0.374126,0.374137 c -0.103643,0.103642 -0.103643,0.270496 0,0.374137 l 0.187068,0.187069 c 0.01884,0.01884 0.0413,0.03038 0.06356,0.04237 a 1.8520823,1.8520823 0 0 0 -0.158128,0.378789 c -0.02388,-0.007 -0.04768,-0.01499 -0.0739,-0.01499 H 33.60208 c -0.146571,0 -0.264583,0.118011 -0.264583,0.264583 v 0.529167 c 0,0.146571 0.118012,0.264583 0.264583,0.264583 h 0.264584 c 0.02638,0 0.0504,-0.0079 0.07441,-0.01499 a 1.8520823,1.8520823 0 0 0 0.156062,0.379822 c -0.02164,0.01186 -0.04363,0.02296 -0.06201,0.04134 l -0.187068,0.187068 c -0.103643,0.103642 -0.103643,0.270496 0,0.374138 l 0.374143,0.374136 c 0.103642,0.103642 0.270496,0.103642 0.374136,0 l 0.187069,-0.187068 c 0.01884,-0.01884 0.03038,-0.0413 0.04237,-0.06356 a 1.8520823,1.8520823 0 0 0 0.378788,0.15813 c -0.007,0.02387 -0.01499,0.04768 -0.01499,0.0739 v 0.264583 c 0,0.146571 0.118012,0.264583 0.264584,0.264583 h 0.529166 c 0.146572,0 0.264584,-0.118012 0.264584,-0.264583 V 13.79244 c 0,-0.02639 -0.0079,-0.0504 -0.01498,-0.07441 a 1.8520823,1.8520823 0 0 0 0.379823,-0.156063 c 0.01185,0.02165 0.02297,0.04363 0.04134,0.06201 l 0.187068,0.187069 c 0.10364,0.103641 0.270495,0.103641 0.374137,0 l 0.374137,-0.374138 c 0.103642,-0.103641 0.103642,-0.270495 0,-0.374137 L 37.402378,12.8757 c -0.01884,-0.01884 -0.0413,-0.03038 -0.06356,-0.04237 a 1.8520823,1.8520823 0 0 0 0.158128,-0.378789 c 0.02387,0.007 0.04767,0.01499 0.07389,0.01499 h 0.264584 c 0.146571,0 0.264583,-0.118011 0.264583,-0.264583 v -0.529166 c 0,-0.146571 -0.118012,-0.264583 -0.264583,-0.264583 h -0.264584 c -0.02638,0 -0.0504,0.0079 -0.07441,0.01499 a 1.8520823,1.8520823 0 0 0 -0.156069,-0.379835 c 0.02164,-0.01186 0.04363,-0.02296 0.06201,-0.04134 l 0.187068,-0.187069 c 0.103643,-0.103641 0.103643,-0.270495 0,-0.374137 L 37.2153,10.069669 c -0.103643,-0.1036413 -0.270497,-0.1036413 -0.374137,0 l -0.187069,0.187069 c -0.01884,0.01884 -0.03038,0.0413 -0.04238,0.06356 a 1.8520823,1.8520823 0 0 0 -0.378783,-0.15813 c 0.007,-0.02387 0.01499,-0.04768 0.01499,-0.0739 V 9.8236898 c -4e-6,-0.1465714 -0.118016,-0.2645833 -0.264588,-0.2645833 z M 35.71875,10.61744 a 1.3229061,1.3229061 0 0 1 1.322917,1.322917 1.3229061,1.3229061 0 0 1 -1.322917,1.322916 1.3229061,1.3229061 0 0 1 -1.322917,-1.322916 1.3229061,1.3229061 0 0 1 1.322917,-1.322917 z"
     style="opacity:1;fill:#ff0000;fill-opacity:1;stroke:none;stroke-width:0.03999999;stroke-linecap:round;stroke-linejoin:round;stroke-miterlimit:4;stroke-dasharray:none;stroke-dashoffset:0;stroke-opacity:1;paint-order:fill markers stroke"
     inkscape:connector-curvature="0" />
  <rect
     style="stroke-width:0.26458332"
     y="-0.26458335"
     x="-15.875"
     height="0.26458332"
     width="7.9375"
     id="rect51"
     transform="rotate(-90)" />
  <rect
     id="rect53"
     width="7.9375"
     height="0.26458332"
     x="-7.9374995"
     y="-0.52916646"
     style="stroke-width:0.26458332"
     transform="rotate(-90)" />
  <path
     style="fill:#000000;fill-opacity:1;stroke:none;stroke-width:0.99999994px;stroke-linecap:butt;stroke-linejoin:miter;stroke-opacity:1"
     d="M 279 7 L 277 9 L 284 16 L 284 18 L 279 13 L 277 15 L 285 23 L 293 15 L 291 13 L 286 18 L 286 16 L 293 9 L 291 7 L 286 12 L 286 8 L 286 7 L 284 7 L 284 8 L 284 12 L 279 7 z "
     transform="scale(0.26458333)"
     id="path64" />
  <path
     style="opacity:1;fill:#222222;fill-opacity:1;stroke:none;stroke-width:2.30940104;stroke-linecap:round;stroke-linejoin:round;stroke-miterlimit:4;stroke-dasharray:none"
     d="M 13 6 L 13 8 L 7 8 L 7 11 L 9 11 L 9 23 L 21 23 L 21 11 L 23 11 L 23 8 L 17 8 L 17 6 L 13 6 z M 11 11 L 13 11 L 13 21 L 11 21 L 11 11 z M 14 11 L 16 11 L 16 21 L 14 21 L 14 11 z M 17 11 L 19 11 L 19 21 L 17 21 L 17 11 z "
     transform="scale(0.26458333)"
     id="rect840" />
  <path
     id="path877"
     d="m 12.964583,9.7895832 -2.645833,3.9687498 0.529167,0.264583 2.645833,-3.968749 z m -2.38125,0.5291668 -1.5874998,1.5875 1.0583338,1.058333 0.529166,-0.529166 -0.529166,-0.529167 1.058333,-1.058333 z m 3.175,0.529167 -0.529167,0.529166 0.529167,0.529167 -1.058333,1.058333 0.529166,0.529167 1.5875,-1.5875 z"
     style="fill:#ff0000;fill-opacity:1;stroke:none;stroke-width:0.26458332px;stroke-linecap:butt;stroke-linejoin:miter;stroke-opacity:1"
     inkscape:connector-curvature="0" />
</svg>
