<?xml version="1.0" encoding="UTF-8" standalone="no"?>
<!-- Created with Inkscape (http://www.inkscape.org/) -->

<svg
   xmlns:dc="http://purl.org/dc/elements/1.1/"
   xmlns:cc="http://creativecommons.org/ns#"
   xmlns:rdf="http://www.w3.org/1999/02/22-rdf-syntax-ns#"
   xmlns:svg="http://www.w3.org/2000/svg"
   xmlns="http://www.w3.org/2000/svg"
   xmlns:xlink="http://www.w3.org/1999/xlink"
   xmlns:sodipodi="http://sodipodi.sourceforge.net/DTD/sodipodi-0.dtd"
   xmlns:inkscape="http://www.inkscape.org/namespaces/inkscape"
   width="10"
   height="25"
   viewBox="0 0 2.6458333 6.6145831"
   version="1.1"
   id="svg8"
   inkscape:version="0.92.3 (2405546, 2018-03-11)"
   sodipodi:docname="wavy.svg">
  <defs
     id="defs2">
    <linearGradient
       inkscape:collect="always"
       id="linearGradient980">
      <stop
         style="stop-color:#ff4646;stop-opacity:0.14"
         offset="0"
         id="stop976" />
      <stop
         style="stop-color:#ff4646;stop-opacity:0;"
         offset="1"
         id="stop978" />
    </linearGradient>
    <linearGradient
       inkscape:collect="always"
       id="linearGradient970">
      <stop
         style="stop-color:#ff4646;stop-opacity:1;"
         offset="0"
         id="stop966" />
      <stop
         style="stop-color:#ff4646;stop-opacity:0.68000001"
         offset="1"
         id="stop968" />
    </linearGradient>
    <linearGradient
       inkscape:collect="always"
       id="linearGradient874">
      <stop
         style="stop-color:#ff4646;stop-opacity:0.184"
         offset="0"
         id="stop870" />
      <stop
         style="stop-color:#c83737;stop-opacity:0;"
         offset="1"
         id="stop872" />
    </linearGradient>
    <linearGradient
       inkscape:collect="always"
       xlink:href="#linearGradient874"
       id="linearGradient876"
       x1="1.3229166"
       y1="296.99997"
       x2="1.3229166"
       y2="294.35416"
       gradientUnits="userSpaceOnUse"
       gradientTransform="matrix(1,0,0,3.499995,0,-742.49849)" />
    <linearGradient
       inkscape:collect="always"
       xlink:href="#linearGradient970"
       id="linearGradient972"
       x1="1.3229166"
       y1="296.47083"
       x2="1.3229166"
       y2="295.67706"
       gradientUnits="userSpaceOnUse"
       gradientTransform="matrix(0.99759613,0,0,1,-0.09168841,0.12508993)" />
    <linearGradient
       inkscape:collect="always"
       xlink:href="#linearGradient980"
       id="linearGradient982"
       x1="1.3229166"
       y1="296.99997"
       x2="1.3229166"
       y2="290.38541"
       gradientUnits="userSpaceOnUse" />
  </defs>
  <sodipodi:namedview
     id="base"
     pagecolor="#ffffff"
     bordercolor="#666666"
     borderopacity="1.0"
     inkscape:pageopacity="0.0"
     inkscape:pageshadow="2"
     inkscape:zoom="15.999999"
     inkscape:cx="2.0478903"
     inkscape:cy="21.317383"
     inkscape:document-units="px"
     inkscape:current-layer="layer1"
     showgrid="true"
     units="px"
     inkscape:snap-bbox="true"
     inkscape:bbox-nodes="true"
     inkscape:window-width="1388"
     inkscape:window-height="1033"
     inkscape:window-x="198"
     inkscape:window-y="41"
     inkscape:window-maximized="0"
     inkscape:snap-bbox-midpoints="true"
     inkscape:snap-center="false"
     inkscape:snap-global="true"
     inkscape:snap-others="false"
     inkscape:showpageshadow="false">
    <inkscape:grid
       type="xygrid"
       id="grid815" />
  </sodipodi:namedview>
  <metadata
     id="metadata5">
    <rdf:RDF>
      <cc:Work
         rdf:about="">
        <dc:format>image/svg+xml</dc:format>
        <dc:type
           rdf:resource="http://purl.org/dc/dcmitype/StillImage" />
        <dc:title></dc:title>
      </cc:Work>
    </rdf:RDF>
  </metadata>
  <g
     inkscape:label="Calque 1"
     inkscape:groupmode="layer"
     id="layer1"
     transform="translate(0,-290.3854)">
    <path
       style="opacity:1;fill:#808080;fill-opacity:1;stroke:none;stroke-width:5.16499996;stroke-miterlimit:4;stroke-dasharray:none;stroke-opacity:1"
       d="m 75.406249,282.97706 a 2.1166666,2.1166666 0 0 0 -2.116667,2.11667 2.1166666,2.1166666 0 0 0 2.116667,2.11667 2.1166666,2.1166666 0 0 0 2.116666,-2.11667 2.1166666,2.1166666 0 0 0 -2.116666,-2.11667 z m 0,1.05834 c 0.146579,0 0.264583,0.118 0.264583,0.26458 v 0.6842 l 0.85783,0.85782 c 0.103653,0.10366 0.103645,0.27049 0,0.37414 -0.103648,0.10365 -0.270484,0.10365 -0.37414,0 L 75.21918,285.2808 c -0.02439,-0.0244 -0.04398,-0.0533 -0.05736,-0.0858 -0.01342,-0.0323 -0.02015,-0.0669 -0.02015,-0.10129 v -0.79375 c 0,-0.14658 0.118004,-0.26458 0.264583,-0.26458 z"
       id="path970"
       inkscape:connector-curvature="0" />
    <path
       style="opacity:1;fill:#808080;fill-opacity:1;stroke:none;stroke-width:5.16499996;stroke-miterlimit:4;stroke-dasharray:none;stroke-opacity:1"
       d="m 67.468749,282.97706 a 2.1166666,2.1166666 0 0 0 -2.116667,2.11667 2.1166666,2.1166666 0 0 0 2.116667,2.11667 2.1166666,2.1166666 0 0 0 2.116667,-2.11667 2.1166666,2.1166666 0 0 0 -2.116667,-2.11667 z m 0,1.32292 a 0.79374999,0.79374999 0 0 1 0.79375,0.79375 0.79374999,0.79374999 0 0 1 -0.79375,0.79375 0.79374999,0.79374999 0 0 1 -0.79375,-0.79375 0.79374999,0.79374999 0 0 1 0.79375,-0.79375 z"
       id="circle1000"
       inkscape:connector-curvature="0" />
    <path
       style="opacity:1;fill:#808080;fill-opacity:1;stroke:none;stroke-width:5.16499996;stroke-miterlimit:4;stroke-dasharray:none;stroke-opacity:1"
       d="m 83.343749,282.97706 a 2.1166666,2.1166666 0 0 0 -2.116667,2.11667 2.1166666,2.1166666 0 0 0 2.116667,2.11667 2.1166666,2.1166666 0 0 0 2.116666,-2.11667 2.1166666,2.1166666 0 0 0 -2.116666,-2.11667 z m -0.529167,1.32292 c 0.278461,2e-4 0.509196,0.2162 0.527616,0.49403 h 5.16e-4 c 0.001,0 0.0018,4.9e-4 0.0026,5.1e-4 0.01824,-0.27805 0.24897,-0.49432 0.527616,-0.49454 0.292249,0 0.529162,0.23692 0.529167,0.52917 -7.4e-5,0.14577 -0.06027,0.28509 -0.166399,0.38499 -0.250796,0.25694 -0.510516,0.51507 -0.765844,0.77049 -0.06978,0.0698 -0.182402,0.0698 -0.25218,0 -0.25563,-0.25581 -0.518568,-0.51225 -0.766363,-0.77204 -0.10554,-0.0996 -0.165616,-0.23828 -0.165881,-0.38344 6e-6,-0.29225 0.236919,-0.52917 0.529167,-0.52917 z"
       id="circle1055"
       inkscape:connector-curvature="0" />
    <path
       style="opacity:1;fill:#a02c2c;fill-opacity:1;stroke:none;stroke-width:5.16499996;stroke-miterlimit:4;stroke-dasharray:none;stroke-opacity:1"
       d="m 75.406249,290.91456 a 2.1166666,2.1166666 0 0 0 -2.116667,2.11667 2.1166666,2.1166666 0 0 0 2.116667,2.11667 2.1166666,2.1166666 0 0 0 2.116666,-2.11667 2.1166666,2.1166666 0 0 0 -2.116666,-2.11667 z m 0,1.05834 c 0.146579,0 0.264583,0.118 0.264583,0.26458 v 0.6842 l 0.85783,0.85782 c 0.103653,0.10366 0.103645,0.27049 0,0.37414 -0.103648,0.10365 -0.270484,0.10365 -0.37414,0 L 75.21918,293.2183 c -0.02439,-0.0244 -0.04398,-0.0533 -0.05736,-0.0858 -0.01342,-0.0323 -0.02015,-0.0669 -0.02015,-0.10129 v -0.79375 c 0,-0.14658 0.118004,-0.26458 0.264583,-0.26458 z"
       id="circle1129"
       inkscape:connector-curvature="0" />
    <path
       style="opacity:1;fill:#a02c2c;fill-opacity:1;stroke:none;stroke-width:5.16499996;stroke-miterlimit:4;stroke-dasharray:none;stroke-opacity:1"
       d="m 67.468749,290.91456 a 2.1166666,2.1166666 0 0 0 -2.116667,2.11667 2.1166666,2.1166666 0 0 0 2.116667,2.11667 2.1166666,2.1166666 0 0 0 2.116667,-2.11667 2.1166666,2.1166666 0 0 0 -2.116667,-2.11667 z m 0,1.32292 a 0.79374999,0.79374999 0 0 1 0.79375,0.79375 0.79374999,0.79374999 0 0 1 -0.79375,0.79375 0.79374999,0.79374999 0 0 1 -0.79375,-0.79375 0.79374999,0.79374999 0 0 1 0.79375,-0.79375 z"
       id="circle1135"
       inkscape:connector-curvature="0" />
    <path
       style="opacity:1;fill:#a02c2c;fill-opacity:1;stroke:none;stroke-width:5.16499996;stroke-miterlimit:4;stroke-dasharray:none;stroke-opacity:1"
       d="m 83.343749,290.91456 a 2.1166666,2.1166666 0 0 0 -2.116667,2.11667 2.1166666,2.1166666 0 0 0 2.116667,2.11667 2.1166666,2.1166666 0 0 0 2.116666,-2.11667 2.1166666,2.1166666 0 0 0 -2.116666,-2.11667 z m -0.529167,1.32292 c 0.278461,2e-4 0.509196,0.2162 0.527616,0.49403 h 5.16e-4 c 0.001,0 0.0018,4.9e-4 0.0026,5.1e-4 0.01824,-0.27805 0.24897,-0.49432 0.527616,-0.49454 0.292249,0 0.529162,0.23692 0.529167,0.52917 -7.4e-5,0.14577 -0.06027,0.28509 -0.166399,0.38499 -0.250796,0.25694 -0.510516,0.51507 -0.765844,0.77049 -0.06978,0.0698 -0.182402,0.0698 -0.25218,0 -0.25563,-0.25581 -0.518568,-0.51225 -0.766363,-0.77204 -0.10554,-0.0996 -0.165616,-0.23828 -0.165881,-0.38344 6e-6,-0.29225 0.236919,-0.52917 0.529167,-0.52917 z"
       id="circle1139"
       inkscape:connector-curvature="0" />
    <path
       style="opacity:1;fill:#808080;fill-opacity:1;stroke:none;stroke-width:3.86704421;stroke-miterlimit:4;stroke-dasharray:none;stroke-opacity:1"
       d="m 99.218749,282.71248 -2.38125,2.38125 2.38125,2.38125 2.381251,-2.38125 z m -0.264584,1.32292 h 0.529167 v 2.11666 h -0.529167 z"
       id="rect1199"
       inkscape:connector-curvature="0" />
    <path
       style="opacity:1;fill:#a02c2c;fill-opacity:1;stroke:none;stroke-width:3.86704421;stroke-miterlimit:4;stroke-dasharray:none;stroke-opacity:1"
       d="m 99.218749,290.64998 -2.38125,2.38125 2.38125,2.38125 2.381251,-2.38125 z m -0.264584,1.32292 h 0.529167 v 2.11666 h -0.529167 z"
       id="rect1211"
       inkscape:connector-curvature="0" />
    <rect
       style="opacity:1;fill:#808080;fill-opacity:1;stroke:none;stroke-width:8.64272976;stroke-miterlimit:4;stroke-dasharray:none;stroke-opacity:1"
       id="rect1215"
       width="2.6458349"
       height="1.8520958"
       x="89.164581"
       y="282.97705" />
    <rect
       y="285.35831"
       x="90.752083"
       height="1.8520809"
       width="2.6458323"
       id="rect1226"
       style="opacity:1;fill:#808080;fill-opacity:1;stroke:none;stroke-width:8.64269066;stroke-miterlimit:4;stroke-dasharray:none;stroke-opacity:1" />
    <rect
       y="290.91455"
       x="89.164581"
       height="1.8520958"
       width="2.1166649"
       id="rect1238"
       style="opacity:1;fill:#808080;fill-opacity:1;stroke:none;stroke-width:7.73028708;stroke-miterlimit:4;stroke-dasharray:none;stroke-opacity:1" />
    <rect
       style="opacity:1;fill:#808080;fill-opacity:1;stroke:none;stroke-width:7.73025608;stroke-miterlimit:4;stroke-dasharray:none;stroke-opacity:1"
       id="rect1240"
       width="2.1166651"
       height="1.8520809"
       x="91.28125"
       y="293.29581" />
    <path
       style="color:#000000;font-style:normal;font-variant:normal;font-weight:normal;font-stretch:normal;font-size:medium;line-height:normal;font-family:sans-serif;font-variant-ligatures:normal;font-variant-position:normal;font-variant-caps:normal;font-variant-numeric:normal;font-variant-alternates:normal;font-feature-settings:normal;text-indent:0;text-align:start;text-decoration:none;text-decoration-line:none;text-decoration-style:solid;text-decoration-color:#000000;letter-spacing:normal;word-spacing:normal;text-transform:none;writing-mode:lr-tb;direction:ltr;text-orientation:mixed;dominant-baseline:auto;baseline-shift:baseline;text-anchor:start;white-space:normal;shape-padding:0;clip-rule:nonzero;display:inline;overflow:visible;visibility:visible;opacity:1;isolation:auto;mix-blend-mode:normal;color-interpolation:sRGB;color-interpolation-filters:linearRGB;solid-color:#000000;solid-opacity:1;vector-effect:none;fill:url(#linearGradient972);fill-opacity:1;fill-rule:nonzero;stroke:none;stroke-width:0.27406606px;stroke-linecap:butt;stroke-linejoin:miter;stroke-miterlimit:4;stroke-dasharray:none;stroke-dashoffset:0;stroke-opacity:1;color-rendering:auto;image-rendering:auto;shape-rendering:auto;text-rendering:auto;enable-background:accumulate"
       d="m -0.00198748,295.81216 a 0.39592094,0.39687498 0 0 0 -0.39592094,0.39687 0.39592094,0.39687498 0 0 0 0.39592094,0.39688 0.39592094,0.39687498 0 0 0 0.08609217,-0.01 c 0.04712818,0.0788 0.10096601,0.15546 0.17115333,0.22117 0.11378189,0.10653 0.26835752,0.18345 0.45005076,0.18345 0.18169324,0 0.33626892,-0.077 0.45005072,-0.18345 0.06407,-0.06 0.1157683,-0.12898 0.1608429,-0.2005 0.045072,0.0715 0.096781,0.14052 0.1608429,0.2005 0.1137818,0.10653 0.2683575,0.18345 0.4500508,0.18345 0.1816931,0 0.3362688,-0.077 0.4500507,-0.18345 0.070305,-0.0658 0.1236139,-0.1427 0.1706378,-0.22169 a 0.39592094,0.39687498 0 0 0 0.089701,0.0103 0.39592094,0.39687498 0 0 0 0.395921,-0.39688 0.39592094,0.39687498 0 0 0 -0.395921,-0.39687 0.39592094,0.39687498 0 0 0 -0.3959208,0.39687 0.39592094,0.39687498 0 0 0 0.077843,0.23616 c -0.03865,0.0647 -0.080725,0.12548 -0.1293961,0.17105 -0.075811,0.071 -0.1557048,0.1111 -0.2629163,0.1111 -0.1072113,0 -0.18762,-0.0401 -0.2634317,-0.1111 -0.031756,-0.0297 -0.060433,-0.0675 -0.088155,-0.10645 a 0.39592094,0.39687498 0 0 0 0.13816,-0.30076 0.39592094,0.39687498 0 0 0 -0.395921,-0.39687 0.39592094,0.39687498 0 0 0 -0.39592096,0.39687 0.39592094,0.39687498 0 0 0 0.13609786,0.29921 c -0.028148,0.0396 -0.057508,0.0779 -0.0897006,0.108 -0.0758118,0.071 -0.15570495,0.1111 -0.26291632,0.1111 -0.10721136,0 -0.18710452,-0.0401 -0.26291624,-0.1111 -0.0480256,-0.045 -0.089925,-0.10477 -0.12836501,-0.16846 a 0.39592094,0.39687498 0 0 0 0.079906,-0.23875 0.39592094,0.39687498 0 0 0 -0.39592095,-0.39687 z"
       id="path949"
       inkscape:connector-curvature="0" />
    <rect
       style="opacity:1;fill:url(#linearGradient982);fill-opacity:1;stroke:none;stroke-width:1.66499996;stroke-linecap:round;stroke-linejoin:round;stroke-miterlimit:4;stroke-dasharray:none;stroke-opacity:1"
       id="rect974"
       width="2.6458333"
       height="6.6145835"
       x="0"
       y="290.38538" />
  </g>
</svg>
